…
Now I can check the unique `name`s for each brand. These are stored in
the `brand_name` variable.

### The Kushy brand names

These are the brand names in the `KushyBrands` data frame.

    #>  # A tibble: 1,776 x 2
    #>     brand_name                        n
    #>     <chr>                         <int>
    #>   1 Brewbudz by Cannabiniers          2
    #>   2 Dixie Elixirs & Edibles           2
    #>   3 #1 Suspect Extracts               1
    #>   4 1 World Medicinals                1
    #>   5 1906 Chocolates                   1
    #>   6 1906 New Highs                    1
    #>   7 2020 Creations                    1
    #>   8 2020 Future Pre Rolls             1
    #>   9 2020 Knockout Pre Roll Sticks     1
    #>  10 2020 Medi Mudd                    1
    #>  # … with 1,766 more rows
…
    #>  Rows: 25,862
    #>  Columns: 7
    #>  $ id               <dbl> 1, 1, 7, 7, 8, 9, 15, 16, 17, 18, 19, 22, 23, 24, …
    #>  $ name             <chr> "Pre-Roll Package - Pre-roll", "Pre-Roll Package -…
    #>  $ product_name     <chr> "Pre-Roll Package", "Pre-Roll Package", "The Humbo…
    #>  $ product_details  <chr> "Pre-roll", "Pre-roll", "Pre-roll", "Pre-roll", "5…
    #>  $ product_category <chr> "Flowers", "Pre-Roll", "Flowers", "Pre-Roll", "Top…
    #>  $ brand            <chr> "The Humboldt Cure", "The Humboldt Cure", "The Hum…
    #>  $ category         <chr> "Flowers", "Pre-Roll", "Flowers", "Pre-Roll", "Top…

This shows there are `25,862` rows in the `TidyProdCat` dataset.

    #>  # A tibble: 5,582 x 2
    #>     product_name                n
    #>     <chr>                   <int>
    #>   1 Sour Diesel               480
    #>   2 OG Kush                   423
    #>   3 Girl Scout Cookies        409
    #>   4 Blue Dream                348
    #>   5 Gorilla Glue #4           223
    #>   6 Jack Herer                179
    #>   7 Headband                  165
    #>   8 Green Crack               147
    #>   9 Granddaddy Purple (GDP)   139
    #>  10 Hard Candies              134
    #>  # … with 5,572 more rows
…
