…
                sales_reg_num = case_when(
                sales_region %in% "West/Pacific" ~ 1,
                sales_region %in% "West/Mountain" ~ 2)) %>% 
  
    dplyr::group_by(floor_month, location)
# check new data 
MonthlyLocationSales <- MonthlyLocationSales %>% 
  dplyr::mutate(invoice_year = if_else(condition = floor_month >= lubridate::as_date("2019-01-01"), 
                                       true = 2019,
                                       false = 2018,
                                       missing = NA_real_))
MonthlyLocationSales %>% count(invoice_year)
```

    #>  # A tibble: 85 x 4
    #>  # Groups:   floor_month, location [85]
    #>     floor_month         location   invoice_year     n
    #>     <dttm>              <chr>             <dbl> <int>
    #>   1 2018-01-01 00:00:00 California         2018     1
    #>   2 2018-01-01 00:00:00 Colorado           2018     1
    #>   3 2018-01-01 00:00:00 Nevada             2018     1
    #>   4 2018-01-01 00:00:00 Oregon             2018     1
    #>   5 2018-02-01 00:00:00 California         2018     1
    #>   6 2018-02-01 00:00:00 Colorado           2018     1
    #>   7 2018-02-01 00:00:00 Oregon             2018     1
    #>   8 2018-03-01 00:00:00 California         2018     1
    #>   9 2018-03-01 00:00:00 Nevada             2018     1
    #>  10 2018-03-01 00:00:00 Oregon             2018     1
    #>  # … with 75 more rows
…
